{
  "properties": [
    {
      "name": "me.eureka.default-zone",
      "type": "java.lang.String",
      "description": "Eureka default zone URL."
    },
    {
      "name": "me.eureka.default-zone",
      "type": "java.lang.String",
      "description": "Description for me.eureka.default-zone."
    }
  ] }